Analysis of Unstructured Text
…
## Tokenization

.small[

```r
library(tidytext)
# a data frame (tibble) that separates the text into words and stores 
# the result in a tibble column called out 
tibble(tweet_txt) %>% unnest_tokens(out, tweet_txt, token = "words")
```

```
## # A tibble: 32 x 1
##    out     
##    <chr>   
##  1 i’m     
##  2 starting
##  3 the     
##  4 week    
##  5 with    
##  6 an      
##  7 update  
##  8 on      
##  9 the     
## 10 canada  
## # … with 22 more rows
```
…
